<?xml version="1.0" encoding="utf-8"?>
<!-- Generator: Adobe Illustrator 21.0.2, SVG Export Plug-In . SVG Version: 6.00 Build 0)  -->
<svg version="1.1" id="Слой_1" xmlns="http://www.w3.org/2000/svg" xmlns:xlink="http://www.w3.org/1999/xlink" x="0px" y="0px"
	 width="143.67px" height="203.79px" viewBox="0 0 143.67 203.79" enable-background="new 0 0 143.67 203.79" xml:space="preserve">
<title>Geotag_AllatRa_black</title>
<g id="objects">
	<path fill="#1D1D1B" d="M64.19,173c-5.3-7.14-51.76-70.64-51.76-100.48c0.425-32.814,27.371-59.07,60.185-58.645
		c32.214,0.418,58.227,26.431,58.645,58.645c0,29.84-46.47,93.34-51.77,100.48l-7.65,10.31L64.19,173z"/>
	<path fill="#FFFFFF" stroke="#1D1D1B" stroke-width="3" d="M71.84,22.6c27.555,0,49.894,22.335,49.9,49.89
		c0,27.56-49.9,94.8-49.9,94.8S22,100.05,22,72.49C22,44.956,44.306,22.628,71.84,22.6 M71.84,3.6
		C33.799,3.633,2.961,34.449,2.9,72.49c0,9.71,2.88,27.3,27.77,67.73c12.76,20.72,25.33,37.71,25.87,38.42l15.3,20.62l15.3-20.62
		c0.53-0.71,13.11-17.7,25.87-38.42c24.9-40.43,27.78-58,27.78-67.73c-0.033-38.065-30.885-68.912-68.95-68.94V3.6z"/>
	<path fill="#1D1D1B" stroke="#1D1D1B" d="M71.84,22.6c27.555,0,49.894,22.335,49.9,49.89c0,27.56-49.9,94.8-49.9,94.8
		S22,100.05,22,72.49C22,44.956,44.306,22.628,71.84,22.6 M71.84,9C36.788,9.044,8.384,37.448,8.34,72.5
		c0,30.51,43.8,91.08,52.57,102.91l10.93,14.72l10.93-14.73c8.78-11.83,52.57-72.4,52.57-102.91C135.296,37.44,106.89,9.039,71.84,9
		z"/>
	<circle display="none" fill="#FFD97C" stroke="#FFFFFF" stroke-width="2" cx="70.794" cy="66.369" r="27.964"/>
	<circle fill="#FFE633" stroke="#FFFFFF" stroke-width="2" cx="70.794" cy="66.369" r="27.964"/>
</g>
</svg>
