<?xml version="1.0" encoding="utf-8"?>
<!-- Generator: Adobe Illustrator 21.0.2, SVG Export Plug-In . SVG Version: 6.00 Build 0)  -->
<svg version="1.1" id="Слой_1" xmlns="http://www.w3.org/2000/svg" xmlns:xlink="http://www.w3.org/1999/xlink" x="0px" y="0px"
	 width="143.67px" height="203.79px" viewBox="0 0 143.67 203.79" enable-background="new 0 0 143.67 203.79" xml:space="preserve">
<title>Geotag_AllatRa_black</title>
<g id="objects">
	<path fill="#1D1D1B" d="M64.19,173c-5.3-7.14-51.76-70.64-51.76-100.48c0.425-32.814,27.371-59.07,60.185-58.645
		c32.214,0.418,58.227,26.431,58.645,58.645c0,29.84-46.47,93.34-51.77,100.48l-7.65,10.31L64.19,173z"/>
	<path fill="#FFFFFF" stroke="#1D1D1B" stroke-width="3" d="M71.84,22.6c27.555,0,49.894,22.335,49.9,49.89
		c0,27.56-49.9,94.8-49.9,94.8S22,100.05,22,72.49C22,44.956,44.306,22.628,71.84,22.6 M71.84,3.6
		C33.799,3.633,2.961,34.449,2.9,72.49c0,9.71,2.88,27.3,27.77,67.73c12.76,20.72,25.33,37.71,25.87,38.42l15.3,20.62l15.3-20.62
		c0.53-0.71,13.11-17.7,25.87-38.42c24.9-40.43,27.78-58,27.78-67.73c-0.033-38.065-30.885-68.912-68.95-68.94L71.84,3.6L71.84,3.6z
		"/>
	<path fill="#1D1D1B" stroke="#1D1D1B" d="M71.84,22.6c27.555,0,49.894,22.335,49.9,49.89c0,27.56-49.9,94.8-49.9,94.8
		S22,100.05,22,72.49C22,44.956,44.306,22.628,71.84,22.6 M71.84,9C36.788,9.044,8.384,37.448,8.34,72.5
		c0,30.51,43.8,91.08,52.57,102.91l10.93,14.72l10.93-14.73c8.78-11.83,52.57-72.4,52.57-102.91C135.296,37.44,106.89,9.039,71.84,9
		z"/>
	<path display="none" fill="#FFFFFF" stroke="#FFFFFF" stroke-width="2" d="M102.91,50.62c-5.23-10.77-17.22-21-33.75-19.95
		c-5.023,0.26-9.945,1.514-14.48,3.69c-3.8,1.985-7.222,4.622-10.11,7.79C37.826,49.158,34.351,58.686,35,68.39
		C36.16,84,45.48,94.76,57.41,99.54c7.233,2.809,15.162,3.288,22.68,1.37c13.305-3.435,23.433-14.241,26-27.74
		C107.469,65.507,106.355,57.603,102.91,50.62z M95.67,90c-6.182,6.427-14.592,10.238-23.5,10.65
		c-9.245,0.47-18.265-2.954-24.87-9.44c-6-5.81-9.94-12.65-10.66-23.51c-0.46-9.165,2.904-18.11,9.29-24.7
		c5.65-5.76,12.71-10,23.64-10.79c10.43-0.81,19.57,4.36,24.87,9.4c6.496,6.133,10.324,14.572,10.66,23.5
		C105.506,74.349,102.096,83.349,95.67,90z"/>
	<path display="none" fill="#FFFFFF" stroke="#FFFFFF" stroke-width="2" d="M106.05,92c-0.53-0.23-0.75-0.11-1.09,0.28
		c-2.17,2.48-3.8,5-6,7c-6.8,6.06-15.83,10.38-28.7,10.38c-12.87,0.229-25.05-5.808-32.66-16.19c-0.49-0.66-0.86-1.63-2.05-1.23
		c-0.78,2.56-0.06,5.33,0.54,7.51c1.787,6.391,5.571,12.043,10.8,16.13c7.724,6.249,17.558,9.282,27.46,8.47
		c4.407-0.457,8.704-1.657,12.71-3.55c9.08-4.13,16.22-11.58,18.72-22C106.31,96.58,107.13,92.44,106.05,92z M94,114.78
		c-13.389,11.016-32.669,11.133-46.19,0.28c-5.28-4.38-10.72-11.47-11.2-20.09c0-0.19,0-0.39,0.14-0.41c7.27,9,18.15,16.35,34,16.4
		s26.84-7.63,34.3-16.4C104.205,102.502,100.228,109.78,94,114.78z"/>
</g>
<circle fill="#FF0000" cx="70.794" cy="66.369" r="35.036"/>
</svg>
