<?xml version="1.0" encoding="utf-8"?>
<!-- Generator: Adobe Illustrator 24.0.2, SVG Export Plug-In . SVG Version: 6.00 Build 0)  -->
<svg version="1.1" id="Слой_3" xmlns="http://www.w3.org/2000/svg" xmlns:xlink="http://www.w3.org/1999/xlink" x="0px" y="0px"
	 viewBox="0 0 282 94" style="enable-background:new 0 0 282 94;" xml:space="preserve">
<style type="text/css">
	.st0{display:none;fill:#E3131B;}
	.st1{font-family:'Roboto-Regular';}
	.st2{font-size:34.1509px;}
	.st3{letter-spacing:1;}
	.st4{display:none;}
	.st5{display:inline;}
	.st6{fill:#E3131B;}
	.st7{display:none;opacity:0.23;fill:#E3131B;}
	.st8{fill:none;stroke:#E3131B;stroke-width:1.5;stroke-miterlimit:10;}
</style>
<text transform="matrix(1 0 0 1 30.9793 50.7985)" class="st0 st1 st2 st3">подробнее</text>
<g class="st4">
	<g class="st5">
		<polygon class="st6" points="373.25,53.63 386.52,42.3 386.52,35.35 373.25,46.68 359.99,35.34 359.99,42.29 		"/>
	</g>
	<g class="st5">
		<polygon class="st6" points="373.25,42.61 386.52,31.28 386.52,24.33 373.25,35.66 359.99,24.33 359.99,31.28 		"/>
	</g>
</g>
<polygon class="st7" points="278.42,42.21 294.48,26.15 278.42,10.08 "/>
<polyline class="st8" points="128.08,59.09 144.14,75.16 160.2,59.09 "/>
<polyline class="st8" points="128.08,68.68 144.14,84.74 160.2,68.68 "/>
<g>
	<path class="st6" d="M52.17,50.8h-3.29V29.1H37.07V50.8h-3.29V26.52h18.39V50.8z"/>
	<path class="st6" d="M78.06,40.83c0,2.97-0.92,5.43-2.76,7.39s-4.23,2.93-7.16,2.93c-2.83,0-5.14-0.98-6.91-2.93
		c-1.77-1.96-2.66-4.42-2.66-7.39v-4.32c0-2.96,0.89-5.42,2.66-7.39c1.77-1.97,4.08-2.95,6.91-2.95c2.93,0,5.32,0.98,7.16,2.94
		s2.76,4.43,2.76,7.4V40.83z M74.78,36.47c0-2.22-0.6-4.05-1.8-5.47c-1.2-1.42-2.81-2.13-4.84-2.13c-1.91,0-3.44,0.71-4.58,2.13
		c-1.14,1.42-1.71,3.25-1.71,5.47v4.35c0,2.25,0.57,4.08,1.71,5.5c1.14,1.42,2.67,2.13,4.58,2.13c2.03,0,3.65-0.71,4.84-2.13
		c1.2-1.42,1.79-3.25,1.79-5.51V36.47z"/>
	<path class="st6" d="M106.43,56.75h-3.29V50.8H85.3v5.99h-3.29v-8.55h1.73c1.47,0,2.56-1.01,3.29-3.03
		c0.73-2.02,1.19-4.97,1.39-8.86l0.55-9.82h14.12v21.71h3.32V56.75z M91.76,36.34c-0.14,2.77-0.44,5.14-0.89,7.13
		s-1.1,3.57-1.96,4.76h10.92V29.1h-7.69L91.76,36.34z"/>
	<path class="st6" d="M115.21,41.06v9.74h-3.28V26.52h9.29c2.59,0,4.6,0.67,6.04,2c1.44,1.33,2.16,3.09,2.16,5.27
		c0,2.2-0.72,3.96-2.16,5.29c-1.44,1.32-3.45,1.98-6.04,1.98H115.21z M115.21,38.49h6c1.65,0,2.87-0.44,3.69-1.33s1.22-2,1.22-3.34
		c0-1.34-0.41-2.47-1.23-3.37s-2.04-1.35-3.68-1.35h-6V38.49z"/>
	<path class="st6" d="M153.89,40.83c0,2.97-0.92,5.43-2.76,7.39s-4.23,2.93-7.16,2.93c-2.83,0-5.14-0.98-6.91-2.93
		c-1.77-1.96-2.66-4.42-2.66-7.39v-4.32c0-2.96,0.89-5.42,2.66-7.39c1.77-1.97,4.08-2.95,6.91-2.95c2.93,0,5.32,0.98,7.16,2.94
		s2.76,4.43,2.76,7.4V40.83z M150.6,36.47c0-2.22-0.6-4.05-1.8-5.47c-1.2-1.42-2.81-2.13-4.84-2.13c-1.91,0-3.44,0.71-4.58,2.13
		c-1.14,1.42-1.71,3.25-1.71,5.47v4.35c0,2.25,0.57,4.08,1.71,5.5s2.67,2.13,4.58,2.13c2.03,0,3.65-0.71,4.84-2.13
		c1.2-1.42,1.79-3.25,1.79-5.51V36.47z"/>
	<path class="st6" d="M175.1,29.1H163.5v7.02h5.99c2.59,0,4.6,0.66,6.04,1.99c1.44,1.33,2.16,3.09,2.16,5.28
		c0,2.2-0.72,3.99-2.17,5.35c-1.45,1.37-3.46,2.05-6.04,2.05h-9.27V26.52h14.89V29.1z M163.5,38.71v9.52h5.99
		c1.63,0,2.86-0.47,3.69-1.41c0.82-0.94,1.23-2.09,1.23-3.46c0-1.32-0.41-2.43-1.23-3.32c-0.82-0.89-2.05-1.33-3.69-1.33H163.5z"/>
	<path class="st6" d="M201.94,50.8h-3.29V40.08h-11.79V50.8h-3.28V26.52h3.28v10.97h11.79V26.52h3.29V50.8z"/>
	<path class="st6" d="M222.57,39.54h-9.97v8.69h11.67v2.57h-14.96V26.52h14.77v2.58H212.6v7.85h9.97V39.54z"/>
	<path class="st6" d="M243.13,39.54h-9.97v8.69h11.67v2.57h-14.96V26.52h14.77v2.58h-11.49v7.85h9.97V39.54z"/>
</g>
</svg>
