﻿Latitude,Longitude,AC_NOSAUKUMS,KM_NO
57.5222134020000340,25.3695701510000620,A3, 66 km
57.4733034770000590,24.4344651080000400,A1, 55 km
57.3864901380000560,24.4292477330000680,A1, 46 km
57.3766647890000740,25.0409965320000650,A3, 39 km
57.3536401060000570,24.9558808850000560,A3, 34 km
57.3429644140000510,24.4445733420000690,A1, 41 km
57.3169042010000570,24.9235746520000700,A2, 30 km
57.2802775520000300,25.4955249490000710,A2, 95 km
57.2749038070000440,25.4792545210000300,A2, 93 km
57.2325634790000780,25.2729020230000290,A2, 79 km
57.2283234150000340,24.4208871870000620,A1, 27 km
57.2199772630000330,24.7902518230000620,A3, 15 km
57.2071284140000670,25.1643866070000400,A2, 72 km
57.1907897740000520,24.7303578610000730,A3, 10 km
57.1833935350000500,24.3435179540000490,A1, 20 km
57.1823429330000290,25.0347353780000500,A2, 64 km
57.1730715170000390,24.3431312630000320,A1, 19 km
57.1667106320000470,24.9588629260000520,A2, 58 km
57.1658348730000510,24.3447900560000790,A1, 18 km
57.1601575730000490,24.9283330590000670,A2, 56 km
57.1412926960000500,24.3379227190000620,A1, 15 km
57.1379912740000580,24.8224004760000410,A2, 49 km
57.1350731340000380,24.8071166750000320,A2, 48 km
57.1197297550000370,24.6462849240000420,A3,  1 km
57.1151145130000370,24.6331198120000750,A2, 36 km
57.0902652080000620,24.5554423740000520,A2, 32 km
57.0865839020000290,24.5443192070000580,A2, 31 km
57.0783482060000440,24.3169529730000700,A1,  8 km
57.0683541400000540,22.8176014310000710,A10, 92 km
57.0581949980000330,24.4571071760000220,A2, 25 km
57.0472569850000470,24.4380664730000490,A2,  0 km
57.0400067040000640,24.4149916610000450,A2, 22 km
57.0384889530000690,24.3964822990000700,A2, 21 km
57.0350902350000410,24.3182721470000730,A1,  3 km
57.0281361070000800,24.3641588230000250,A2, 18 km
57.0229368450000610,24.3483717390000720,A2, 17 km
57.0184031070000400,24.3341494620000280,A2, 16 km
57.0127998660000800,24.3081191650000510,A1,  1 km
57.0120796350000770,24.3147897270000610,A2, 15 km
57.0088776060000550,24.3045332650000320,A2, 14 km
57.0071636610000500,24.3076637330000270,A4,  1 km
57.0048072810000690,24.2915847430000440,A2, 13 km
56.9859676530000460,24.3207868730000310,A4,  3 km
56.9689965370000660,23.8679447190000360,A10, 20 km
56.9647470550000320,23.8654302820000340,A10, 21 km
56.9609277110000680,23.8871012620000440,A10, 18 km
56.9552065430000310,23.9188462780000460,A10, 16 km
56.9546936460000670,23.9216637450000460,A10, 17 km
56.9520630250000290,23.9327772730000560,A10, 15 km
56.9491946940000280,23.1146829750000510,A10, 69 km
56.9460712770000440,23.1397736040000270,A10, 67 km
56.9293711250000460,23.6909064820000590,A10, 32 km
56.9217464980000610,23.9107483960000310,A9,  1 km
56.9123634440000500,23.7906961330000400,A9,  8 km
56.8950233220000430,24.1415641210000440,A7,  8 km
56.8905339930000760,24.1474724800000330,A7,  9 km
56.8860865610000700,23.9427778760000360,A5, 31 km
56.8816302060000680,24.1591323760000590,A7, 10 km
56.8731249960000580,24.1706815320000600,A7,  0 km
56.8714377040000730,23.9631976210000630,A5, 28 km
56.8573681760000800,24.0641559410000240,A8, 12 km
56.8573397970000660,24.3169490320000250,A6, 18 km
56.8487204750000500,24.0609708790000240,A8, 13 km
56.8472605400000360,24.4430715870000770,A6, 26 km
56.8428069040000420,24.2119598620000720,A7, 15 km
56.8383523540000510,24.2209201170000480,A7, 16 km
56.8202856320000360,24.0959456400000250,A5, 18 km
56.8121154860000390,24.2462840250000230,A7, 20 km
56.8115640070000720,24.1622056310000630,A5, 14 km
56.8108384140000450,24.2245998740000350,A5, 10 km
56.7894475830000260,24.2428756070000300,A7, 22 km
56.7893886110000490,23.9598741750000390,A8, 22 km
56.7835788590000450,23.9488344370000730,A8, 23 km
56.7792910070000400,24.2417996480000400,A7, 23 km
56.7698571680000440,23.3379812500000410,A9, 41 km
56.7662339480000360,23.9183426260000260,A8, 26 km
56.7304588110000620,23.8605191330000250,A8, 31 km
56.7269029960000350,23.8555468010000600,A8, 32 km
56.6878918530000530,23.8212347380000440,A8, 37 km
56.6772730530000790,22.2199054860000730,A9,118 km
56.6735381150000420,23.8234861860000250,A8, 38 km
56.6707508850000750,23.0852249750000740,A9, 62 km
56.6523096730000470,23.8013993540000680,A8, 42 km
56.6473659640000730,22.8528760210000430,A9, 76 km
56.6395112960000800,23.7756733070000340,A8, 43 km
56.6241069010000610,24.2201061980000530,A7, 40 km
56.5957055760000570,25.6374037500000330,A6,116 km
56.5919307640000400,21.7143079360000680,A9,  0 km
56.5341147760000810,24.1716425650000700,A7, 52 km
56.5330666280000290,27.5515433740000620,A12,115 km
56.5299219360000510,27.5418021590000420,A12,114 km
56.5154044710000680,27.4686558930000610,A12,109 km
56.5024429790000800,24.1741505490000460,A7, 56 km
56.3967626370000520,24.2356095980000530,A7, 69 km
56.2350926830000620,27.0345810370000660,A13, 87 km
